%YAML 1.1
%TAG !u! tag:unity3d.com,2011:
--- !u!1045 &1
EditorBuildSettings:
  m_ObjectHideFlags: 0
  serializedVersion: 2
  m_Scenes:
  - enabled: 1
    path: Assets/01. Scenes/Scene_Menu.unity
  - enabled: 1
    path: Assets/01. Scenes/Scene_BasicLayout.unity
  - enabled: 1
    path: Assets/01. Scenes/Scene_LunarBomb.unity
  - enabled: 1
    path: Assets/01. Scenes/Scene_SimonSays.unity
  - enabled: 1
    path: Assets/01. Scenes/Scene_TicTacToe.unity
